…
``` r
#konversi diff_time
transmute(flights, air_time, diff_time = (((arr_time %/% 100)*60) + (arr_time %% 100)) - (((dep_time %/% 100)*60) + (dep_time %% 100)))
```

    ## # A tibble: 336,776 × 2
    ##    air_time diff_time
    ##       <dbl>     <dbl>
    ##  1      227       193
    ##  2      227       197
    ##  3      160       221
    ##  4      183       260
    ##  5      116       138
    ##  6      150       106
    ##  7      158       198
    ##  8       53        72
    ##  9      140       161
    ## 10      138       115
    ## # ℹ 336,766 more rows
…
``` r
by_day <- group_by(flights, year, month, day)
summarise(by_day, delay = mean(dep_delay, na.rm = TRUE))
```

    ## `summarise()` has grouped output by 'year', 'month'. You can override using the
    ## `.groups` argument.

    ## # A tibble: 365 × 4
    ## # Groups:   year, month [12]
    ##     year month   day delay
    ##    <int> <int> <int> <dbl>
    ##  1  2013     1     1 11.5 
    ##  2  2013     1     2 13.9 
    ##  3  2013     1     3 11.0 
    ##  4  2013     1     4  8.95
    ##  5  2013     1     5  5.73
    ##  6  2013     1     6  7.15
    ##  7  2013     1     7  5.42
    ##  8  2013     1     8  2.55
    ##  9  2013     1     9  2.28
    ## 10  2013     1    10  2.84
    ## # ℹ 355 more rows
…
Ketika Anda mengelompokkan berdasarkan beberapa variabel, setiap
ringkasan mengupas satu tingkat pengelompokan. Hal ini memudahkan untuk
menggulung set data secara progresif:

``` r
daily <- group_by(flights, year, month, day)

(per_day <- summarise(daily, flights = n())) #%>% head()
```

    ## `summarise()` has grouped output by 'year', 'month'. You can override using the
    ## `.groups` argument.

    ## # A tibble: 365 × 4
    ## # Groups:   year, month [12]
    ##     year month   day flights
    ##    <int> <int> <int>   <int>
    ##  1  2013     1     1     842
    ##  2  2013     1     2     943
    ##  3  2013     1     3     914
    ##  4  2013     1     4     915
    ##  5  2013     1     5     720
    ##  6  2013     1     6     832
    ##  7  2013     1     7     933
    ##  8  2013     1     8     899
    ##  9  2013     1     9     902
    ## 10  2013     1    10     932
    ## # ℹ 355 more rows
…
